<svg width="61" height="56" viewBox="0 0 61 56" fill="none" xmlns="http://www.w3.org/2000/svg">
<path d="M30.8327 55.5571L41.9425 21.3696H19.7281L30.8327 55.5571Z" fill="white"/>
<path d="M30.8326 55.5571L19.7192 21.3696H4.16968L30.8326 55.5571Z" fill="#F2F2F2"/>
<path d="M4.15717 21.3804L0.777385 31.7682C0.627234 32.2299 0.626933 32.7273 0.776525 33.1893C0.926117 33.6512 1.21794 34.054 1.61027 34.3401L30.8327 55.5732L4.15717 21.3804Z" fill="#D5D5D5"/>
<path d="M4.16248 21.3803H19.7317L13.0311 0.790575C12.9541 0.560709 12.8068 0.360851 12.61 0.21925C12.4133 0.0776489 12.177 0.00146484 11.9346 0.00146484C11.6921 0.00146484 11.4559 0.0776489 11.2591 0.21925C11.0623 0.360851 10.915 0.560709 10.838 0.790575L4.16248 21.3803Z" fill="white"/>
<path d="M30.8326 55.5571L41.9425 21.3696H57.5171L30.8326 55.5571Z" fill="#F2F2F2"/>
<path d="M57.5063 21.3804L60.8861 31.7682C61.0371 32.2299 61.0378 32.7275 60.8882 33.1897C60.7385 33.6518 60.4462 34.0546 60.0532 34.3401L30.8326 55.5572L57.4992 21.3804H57.5063Z" fill="#D5D5D5"/>
<path d="M57.5134 21.38H41.946L48.6341 0.790291C48.7106 0.560202 48.8576 0.360039 49.0543 0.218189C49.2509 0.0763384 49.4873 0 49.7297 0C49.9722 0 50.2085 0.0763384 50.4052 0.218189C50.6018 0.360039 50.7489 0.560202 50.8254 0.790291L57.5134 21.38Z" fill="white"/>
</svg>
